{
    "condition": "alternative",
    "terms": [
        {
            "condition": "entity_properties",
            "entity": "this",
            "predicate": {
                "type": "minecraft:villager",
                "nbt": "{VillagerData:{level: 4}}"
            }
        },
        {
            "condition": "reference",
            "name": "starbidou_villtrades:villager_at_least_5"
        }
    ]
}